graph NeighborJoin {
    u5--Homo_sapiens [label=0.055];
    u5--u6 [label=0.021];
    u5--Oryctolagus_cuniculus [label=0.052];
    u6--u4 [label=0.028];
    u6--Elephas_maximus [label=0.074];
    u4--u2 [label=0.262];
    u4--u3 [label=0.119];
    u2--Tetrahymena_thermophila [label=-0.371];
    u2--u1 [label=-0.130];
    u3--Schizosaccharomyces_pombe [label=-0.164];
    u3--Gallus_gallus [label=0.164];
    u1--Saccharomyces_cerevisiae [label=-0.108];
    u1--Dasyatis_sabina  [label=0.108];
}
