digraph UPGMA {
    u4->u3 [label=56.750];
    u4->Tetrahymena_thermophila [label=166.500];
    u3->u2 [label=7.750];
    u3->Dasyatis_sabina  [label=109.750];
    u2->u1 [label=61.500];
    u2->Gallus_gallus [label=102.000];
    u1->u0 [label=10.500];
    u1->Elephas_maximus [label=40.500];
    u0->Oryctolagus_cuniculus [label=30.000];
    u0->Homo_sapiens [label=30.000];
}
